{
    "_default": {
        "1": {
            "dname": "data",
            "reminder_default_assistant": 1,
            "reminder_default_google_calendar": 0,
            "alarm_snooze_interval": 3,
            "alarm_n_snooze": 0,
            "alarm_ringtone_name": "Alarm clock funny",
            "weather_location_country": "Egypt",
            "weather_location_city": "Cairo",
            "news_location_country": "Egypt",
            "news_interest_sport": 0,
            "news_interest_business": 1,
            "news_interest_entertainment": 1,
            "news_interest_health": 0,
            "news_interest_science": 1,
            "morning_text_qoute": 1,
            "morning_text_mail": 1,
            "morning_text_news": 0,
            "morning_text_weather": 1
        }
    }
}